{
	"forge_marker": 1,
	"defaults": { "model": "wearsfr:solar_ejector", "transform": "forge:default-block" },
	"variants": {
		"facing=north": { "model": "wearsfr:solar_ejector" },
		"facing=south": { "model": "wearsfr:solar_ejector", "y": 180 },
		"facing=west":  { "model": "wearsfr:solar_ejector", "y": 270 },
		"facing=east":  { "model": "wearsfr:solar_ejector", "y": 90 },
		"inventory":[{}]
	}
}